digraph pim {
  "kontactinterface" [fillcolor="darkgreen", style="filled"] ;
  "akonadi" [fillcolor="darkgreen", style="filled"] ;
  "knotes" [fillcolor="lightblue", style="filled"] ;
  "libkf5grantleetheme" [fillcolor="darkgreen", style="filled"] ;
  "akonadiconsole" [fillcolor="lightblue", style="filled"] ;
  "kalarm" [fillcolor="lightblue", style="filled"] ;
  "kmime" [fillcolor="darkgreen", style="filled"] ;
  "kmail-account-wizard" [fillcolor="lightblue", style="filled"] ;
  "kdepim-runtime" [fillcolor="lightblue", style="filled"] ;
  "pim-data-exporter" [fillcolor="lightblue", style="filled"] ;
  "mbox-importer" [fillcolor="lightblue", style="filled"] ;
  "grantlee-editor" [fillcolor="lightblue", style="filled"] ;
  "kdepim-addons" [fillcolor="lightblue", style="filled"] ;
  "kleopatra" [fillcolor="lightblue", style="filled"] ;
  "kcontacts" [fillcolor="darkgreen", style="filled"] ;
  "kholidays" [fillcolor="darkgreen", style="filled"] ;
  "korganizer" [fillcolor="lightblue", style="filled"] ;
  "kaddressbook" [fillcolor="lightblue", style="filled"] ;
  "kdav" [fillcolor="darkgreen", style="filled"] ;
  "akonadi-calendar-tools" [fillcolor="lightblue", style="filled"] ;
  "kpimtextedit" [fillcolor="darkgreen", style="filled"] ;
  "kgpg" [fillcolor="lightblue", style="filled"] ;
  "kmail" [fillcolor="lightblue", style="filled"] ;
  "kcalcore" [fillcolor="darkgreen", style="filled"] ;
  "kldap" [fillcolor="darkgreen", style="filled"] ;
  "syndication" [fillcolor="darkgreen", style="filled"] ;
  "blogilo" [fillcolor="lightblue", style="filled"] ;
  "akregator" [fillcolor="lightblue", style="filled"] ;
  "pim-sieve-editor" [fillcolor="lightblue", style="filled"] ;
  "kontact" [fillcolor="lightblue", style="filled"] ;
  "libkf5libkdepim" -> "libkf5mailimporter" ;
  "kcalutils" -> "ktnef" ;
  "kcontacts" -> "ktnef" ;
  "kontactinterface" -> "knotes" ;
  "kcalutils" -> "knotes" ;
  "akonadi-notes" -> "knotes" ;
  "libkf5pimcommon" -> "knotes" ;
  "kcalcore" -> "kblog" ;
  "syndication" -> "kblog" ;
  "libkf5calendarsupport" -> "akonadiconsole" ;
  "kf5-messagelib" -> "akonadiconsole" ;
  "libkf5eventviews" -> "libkf5incidenceeditor" ;
  "kcalcore" -> "kalarmcal" ;
  "akonadi" -> "kalarmcal" ;
  "kholidays" -> "kalarmcal" ;
  "kidentitymanagement" -> "kalarmcal" ;
  "kf5-kdepim-apps-libs" -> "kf5-messagelib" ;
  "kmailtransport" -> "kf5-messagelib" ;
  "libkf5gravatar" -> "kf5-messagelib" ;
  "kmbox" -> "kf5-messagelib" ;
  "kidentitymanagement" -> "kf5-messagelib" ;
  "libkf5mailcommon" -> "kalarm" ;
  "kcalutils" -> "kalarm" ;
  "kalarmcal" -> "kalarm" ;
  "libkf5pimcommon" -> "libkf5gravatar" ;
  "kcalutils" -> "libkolab" ;
  "akonadi-notes" -> "libkolab" ;
  "kcontacts" -> "libkolab" ;
  "akonadi-mime" -> "akonadi-contacts" ;
  "kcontacts" -> "akonadi-contacts" ;
  "libkf5mailimporter" -> "libkf5mailcommon" ;
  "kf5-messagelib" -> "libkf5mailcommon" ;
  "kidentitymanagement" -> "kmail-account-wizard" ;
  "libkf5libkleo" -> "kmail-account-wizard" ;
  "kmailtransport" -> "kmail-account-wizard" ;
  "libkf5pimcommon" -> "kmail-account-wizard" ;
  "akonadi-calendar" -> "kdepim-runtime" ;
  "libkgapi" -> "kdepim-runtime" ;
  "kalarmcal" -> "kdepim-runtime" ;
  "kdav" -> "kdepim-runtime" ;
  "libkf5pimcommon" -> "kdepim-runtime" ;
  "libkolab" -> "kdepim-runtime" ;
  "kmbox" -> "kdepim-runtime" ;
  "libkf5mailcommon" -> "pim-data-exporter" ;
  "libkf5mailcommon" -> "mbox-importer" ;
  "akonadi" -> "akonadi-mime" ;
  "kmime" -> "akonadi-mime" ;
  "kpimtextedit" -> "kidentitymanagement" ;
  "akonadi" -> "akonadi-notes" ;
  "kmime" -> "akonadi-notes" ;
  "kf5-messagelib" -> "grantlee-editor" ;
  "ktnef" -> "kdepim-addons" ;
  "libkf5incidenceeditor" -> "kdepim-addons" ;
  "libkf5ksieve" -> "kdepim-addons" ;
  "akonadi-import-wizard" -> "kdepim-addons" ;
  "akonadi-notes" -> "kdepim-addons" ;
  "libkf5libkleo" -> "kleopatra" ;
  "kmime" -> "kleopatra" ;
  "libkf5grantleetheme" -> "kf5-kdepim-apps-libs" ;
  "libkf5libkleo" -> "kf5-kdepim-apps-libs" ;
  "libkf5pimcommon" -> "kf5-kdepim-apps-libs" ;
  "akonadi-contacts" -> "akonadi-calendar" ;
  "kmailtransport" -> "akonadi-calendar" ;
  "kcalutils" -> "akonadi-calendar" ;
  "kpimtextedit" -> "libkf5libkleo" ;
  "kimap" -> "libkf5pimcommon" ;
  "libkf5libkdepim" -> "libkf5pimcommon" ;
  "kpimtextedit" -> "libkf5pimcommon" ;
  "libkf5incidenceeditor" -> "korganizer" ;
  "akonadi-notes" -> "korganizer" ;
  "kontactinterface" -> "korganizer" ;
  "kcalcore" -> "libkgapi" ;
  "kcontacts" -> "libkgapi" ;
  "kf5-kdepim-apps-libs" -> "kaddressbook" ;
  "kontactinterface" -> "kaddressbook" ;
  "akonadi-contacts" -> "libkf5libkdepim" ;
  "akonadi-search" -> "libkf5libkdepim" ;
  "kldap" -> "libkf5libkdepim" ;
  "kf5-kdepim-apps-libs" -> "libkf5calendarsupport" ;
  "akonadi-calendar" -> "libkf5calendarsupport" ;
  "kholidays" -> "libkf5calendarsupport" ;
  "akonadi-mime" -> "kmailtransport" ;
  "libkf5calendarsupport" -> "akonadi-calendar-tools" ;
  "akonadi-contacts" -> "kgpg" ;
  "ktnef" -> "kmail" ;
  "kontactinterface" -> "kmail" ;
  "libkf5mailcommon" -> "kmail" ;
  "libkf5ksieve" -> "kmail" ;
  "kmime" -> "kmbox" ;
  "kmime" -> "kimap" ;
  "kblog" -> "blogilo" ;
  "kf5-messagelib" -> "blogilo" ;
  "kontactinterface" -> "akregator" ;
  "syndication" -> "akregator" ;
  "kf5-messagelib" -> "akregator" ;
  "kcalcore" -> "kcalutils" ;
  "kidentitymanagement" -> "kcalutils" ;
  "libkf5ksieve" -> "pim-sieve-editor" ;
  "kidentitymanagement" -> "libkf5ksieve" ;
  "kmailtransport" -> "libkf5ksieve" ;
  "libkf5pimcommon" -> "libkf5ksieve" ;
  "libkf5mailcommon" -> "akonadi-import-wizard" ;
  "kf5-kdepim-apps-libs" -> "kontact" ;
  "kontactinterface" -> "kontact" ;
  "akonadi-mime" -> "akonadi-search" ;
  "kcalcore" -> "akonadi-search" ;
  "kcontacts" -> "akonadi-search" ;
  "libkf5calendarsupport" -> "libkf5eventviews" ;
}
